{"installed":
    {
        "client_id":"736483634655-rqdoe12geltqh5pet20kf7gb8100e608.apps.googleusercontent.com",
        "project_id":"analytic-project-1218",
        "auth_uri":"https://accounts.google.com/o/oauth2/auth",
        "token_uri":"https://accounts.google.com/o/oauth2/token",
        "auth_provider_x509_cert_url":"https://www.googleapis.com/oauth2/v1/certs",
        "client_secret":"yvtLr3KMhxOGEPXiySR1nkBD",
        "redirect_uris":["urn:ietf:wg:oauth:2.0:oob","http://localhost"]
    }
}